[gd_scene load_steps=3 format=2]

[ext_resource path="res://scripts/rooms/door.gd" type="Script" id=1]

[sub_resource type="RectangleShape2D" id=1]
extents = Vector2( 33.2629, 53.6499 )

[node name="door" type="Node2D"]
script = ExtResource( 1 )

[node name="Area2D" type="Area2D" parent="."]
collision_mask = 7

[node name="CollisionShape2D" type="CollisionShape2D" parent="Area2D"]
shape = SubResource( 1 )
[connection signal="body_entered" from="Area2D" to="." method="_on_body_entered"]
