; Engine configuration file.
; It's best edited using the editor UI and not directly,
; since the parameters that go here are not all obvious.
;
; Format:
;   [section] ; section goes between []
;   param=value ; assign values to parameters

config_version=4

_global_script_classes=[ {
"base": "Node2D",
"class": "BaseRoom",
"language": "GDScript",
"path": "res://scripts/rooms/base_room.gd"
}, {
"base": "StateMachineState",
"class": "CompleteRequestState",
"language": "GDScript",
"path": "res://scripts/game_manager/states/complete_request_state.gd"
}, {
"base": "Node",
"class": "Constants",
"language": "GDScript",
"path": "res://scripts/utils/constants.gd"
}, {
"base": "Node",
"class": "DialogueManager",
"language": "GDScript",
"path": "res://scripts/dialogue/dialogue.gd"
}, {
"base": "StateMachineState",
"class": "EndState",
"language": "GDScript",
"path": "res://scripts/game_manager/states/end_state.gd"
}, {
"base": "StateMachineState",
"class": "EngageState",
"language": "GDScript",
"path": "res://scripts/enemies/states/engage_state.gd"
}, {
"base": "StateMachineState",
"class": "ExecRequestsState",
"language": "GDScript",
"path": "res://scripts/game_manager/states/exec_requests_state.gd"
}, {
"base": "StateMachineState",
"class": "FailRequestState",
"language": "GDScript",
"path": "res://scripts/game_manager/states/fail_request_state.gd"
}, {
"base": "StateMachineState",
"class": "IdleState",
"language": "GDScript",
"path": "res://scripts/game_manager/states/idle_state.gd"
}, {
"base": "StateMachineState",
"class": "NewRequestState",
"language": "GDScript",
"path": "res://scripts/game_manager/states/new_request_state.gd"
}, {
"base": "StateMachineState",
"class": "PatrolState",
"language": "GDScript",
"path": "res://scripts/enemies/states/patrol_state.gd"
}, {
"base": "StateMachineState",
"class": "PauseState",
"language": "GDScript",
"path": "res://scripts/game_manager/states/pause_state.gd"
}, {
"base": "StateMachineState",
"class": "StartState",
"language": "GDScript",
"path": "res://scripts/game_manager/states/start_state.gd"
}, {
"base": "Node",
"class": "StateMachine",
"language": "GDScript",
"path": "res://scripts/utils/state_machine/state_machine.gd"
}, {
"base": "Node2D",
"class": "StateMachineState",
"language": "GDScript",
"path": "res://scripts/utils/state_machine/state_machine_state.gd"
} ]
_global_script_class_icons={
"BaseRoom": "",
"CompleteRequestState": "",
"Constants": "",
"DialogueManager": "",
"EndState": "",
"EngageState": "",
"ExecRequestsState": "",
"FailRequestState": "",
"IdleState": "",
"NewRequestState": "",
"PatrolState": "",
"PauseState": "",
"StartState": "",
"StateMachine": "",
"StateMachineState": ""
}

[application]

config/name="gg2021-project"
run/main_scene="res://scenes/rooms/main.tscn"
config/icon="res://icon.png"

[autoload]

GameManager="*res://scripts/game_manager/game_manager.gd"

[display]

window/size/width=640
window/size/height=640
window/stretch/mode="2d"
window/stretch/aspect="keep"

[input]

move_up={
"deadzone": 0.5,
"events": [ Object(InputEventKey,"resource_local_to_scene":false,"resource_name":"","device":0,"alt":false,"shift":false,"control":false,"meta":false,"command":false,"pressed":false,"scancode":87,"unicode":0,"echo":false,"script":null)
 ]
}
move_down={
"deadzone": 0.5,
"events": [ Object(InputEventKey,"resource_local_to_scene":false,"resource_name":"","device":0,"alt":false,"shift":false,"control":false,"meta":false,"command":false,"pressed":false,"scancode":83,"unicode":0,"echo":false,"script":null)
 ]
}
move_left={
"deadzone": 0.5,
"events": [ Object(InputEventKey,"resource_local_to_scene":false,"resource_name":"","device":0,"alt":false,"shift":false,"control":false,"meta":false,"command":false,"pressed":false,"scancode":65,"unicode":0,"echo":false,"script":null)
 ]
}
move_right={
"deadzone": 0.5,
"events": [ Object(InputEventKey,"resource_local_to_scene":false,"resource_name":"","device":0,"alt":false,"shift":false,"control":false,"meta":false,"command":false,"pressed":false,"scancode":68,"unicode":0,"echo":false,"script":null)
 ]
}
attack={
"deadzone": 0.5,
"events": [ Object(InputEventMouseButton,"resource_local_to_scene":false,"resource_name":"","device":0,"alt":false,"shift":false,"control":false,"meta":false,"command":false,"button_mask":0,"position":Vector2( 0, 0 ),"global_position":Vector2( 0, 0 ),"factor":1.0,"button_index":1,"pressed":false,"doubleclick":false,"script":null)
 ]
}
defence={
"deadzone": 0.5,
"events": [ Object(InputEventMouseButton,"resource_local_to_scene":false,"resource_name":"","device":0,"alt":false,"shift":false,"control":false,"meta":false,"command":false,"button_mask":0,"position":Vector2( 0, 0 ),"global_position":Vector2( 0, 0 ),"factor":1.0,"button_index":2,"pressed":false,"doubleclick":false,"script":null)
 ]
}
dodge={
"deadzone": 0.5,
"events": [ Object(InputEventKey,"resource_local_to_scene":false,"resource_name":"","device":0,"alt":false,"shift":false,"control":false,"meta":false,"command":false,"pressed":false,"scancode":16777237,"unicode":0,"echo":false,"script":null)
 ]
}
interact={
"deadzone": 0.5,
"events": [ Object(InputEventKey,"resource_local_to_scene":false,"resource_name":"","device":0,"alt":false,"shift":false,"control":false,"meta":false,"command":false,"pressed":false,"scancode":69,"unicode":0,"echo":false,"script":null)
 ]
}
pause={
"deadzone": 0.5,
"events": [ Object(InputEventKey,"resource_local_to_scene":false,"resource_name":"","device":0,"alt":false,"shift":false,"control":false,"meta":false,"command":false,"pressed":false,"scancode":16777217,"unicode":0,"echo":false,"script":null)
, Object(InputEventJoypadButton,"resource_local_to_scene":false,"resource_name":"","device":0,"button_index":11,"pressure":0.0,"pressed":false,"script":null)
 ]
}

[layer_names]

2d_physics/layer_1="world"
2d_physics/layer_2="player"
2d_physics/layer_3="enemy"

[rendering]

quality/driver/driver_name="GLES2"
quality/2d/use_nvidia_rect_flicker_workaround=true
quality/2d/use_pixel_snap=true
environment/default_environment="res://default_env.tres"
