[gd_scene load_steps=5 format=2]

[ext_resource path="res://spritesheets/player/punch.png" type="Texture" id=1]
[ext_resource path="res://scripts/player/Punch.gd" type="Script" id=2]

[sub_resource type="RectangleShape2D" id=1]
extents = Vector2( 6.43366, 5.25431 )

[sub_resource type="Animation" id=2]
resource_name = "punch"
length = 0.5
step = 0.05
tracks/0/type = "value"
tracks/0/path = NodePath("body:position")
tracks/0/interp = 1
tracks/0/loop_wrap = true
tracks/0/imported = false
tracks/0/enabled = true
tracks/0/keys = {
"times": PoolRealArray( 0, 0.05, 0.5 ),
"transitions": PoolRealArray( 1, 0.329877, 1 ),
"update": 0,
"values": [ Vector2( 0, 0 ), Vector2( 20, 0 ), Vector2( 0, 0 ) ]
}
tracks/1/type = "value"
tracks/1/path = NodePath("collider:position")
tracks/1/interp = 1
tracks/1/loop_wrap = true
tracks/1/imported = false
tracks/1/enabled = true
tracks/1/keys = {
"times": PoolRealArray( 0, 0.05, 0.5 ),
"transitions": PoolRealArray( 1, 1, 1 ),
"update": 0,
"values": [ Vector2( -0.621156, 0.129313 ), Vector2( 20, 0.129 ), Vector2( -0.621156, 0.129313 ) ]
}

[node name="Punch" type="Area2D"]
collision_layer = 2
collision_mask = 4
script = ExtResource( 2 )

[node name="collider" type="CollisionShape2D" parent="."]
position = Vector2( -0.621156, 0.129313 )
shape = SubResource( 1 )

[node name="body" type="Area2D" parent="."]
rotation = 1.5708

[node name="sprite" type="Sprite" parent="body"]
position = Vector2( -0.31498, 0 )
texture = ExtResource( 1 )

[node name="animation" type="AnimationPlayer" parent="."]
anims/punch = SubResource( 2 )

[node name="tween" type="Tween" parent="."]
