[gd_scene load_steps=3 format=2]

[ext_resource path="res://scenes/terrains/prototype_terrain.tres" type="TileSet" id=1]
[ext_resource path="res://scripts/rooms/room.gd" type="Script" id=2]

[node name="TileMap" type="TileMap"]
tile_set = ExtResource( 1 )
cell_size = Vector2( 32, 32 )
cell_quadrant_size = 32
format = 1
script = ExtResource( 2 )
__meta__ = {
"_edit_vertical_guides_": [  ]
}
